…
``` r
table_2 = 
  instacart %>% 
  filter(product_name == c("Pink Lady Apples", "Coffee Ice Cream"))
```

    ## Warning in product_name == c("Pink Lady Apples", "Coffee Ice Cream"): longer
    ## object length is not a multiple of shorter object length

``` r
table_2
```

    ## # A tibble: 215 × 15
    ##    order_id product_id add_to_cart_order reordered user_id eval_set order_number
    ##       <int>      <int>             <int>     <int>   <int> <chr>           <int>
    ##  1    13887      17334                 4         1  159168 train               5
    ##  2    33963      17334                10         1  180434 train              54
    ##  3    61005       3798                 4         1   76283 train              17
    ##  4    67536       3798                 1         1  162096 train               5
    ##  5    76470       3798                 5         1  180560 train              61
    ##  6    82073       3798                 2         1   76641 train              20
    ##  7    90256       3798                 1         1   39853 train              46
    ##  8   129588       3798                12         0  176433 train              33
    ##  9   134443      17334                 4         0  108799 train              24
    ## 10   163919      17334                 3         1   12058 train               4
    ## # … with 205 more rows, and 8 more variables: order_dow <int>,
    ## #   order_hour_of_day <int>, days_since_prior_order <int>, product_name <chr>,
    ## #   aisle_id <int>, department_id <int>, aisle <chr>, department <chr>
